<?xml version="1.0" encoding="UTF-8" standalone="no"?>
<svg
   xmlns:i="http://ns.adobe.com/AdobeIllustrator/10.0/"
   xmlns:dc="http://purl.org/dc/elements/1.1/"
   xmlns:cc="http://creativecommons.org/ns#"
   xmlns:rdf="http://www.w3.org/1999/02/22-rdf-syntax-ns#"
   xmlns:svg="http://www.w3.org/2000/svg"
   xmlns="http://www.w3.org/2000/svg"
   xmlns:xlink="http://www.w3.org/1999/xlink"
   id="svg2"
   width="42.427174"
   height="20.07403"
   version="1.0">
  <metadata
     id="metadata7">
    <rdf:RDF>
      <cc:Work
         rdf:about="">
        <dc:format>image/svg+xml</dc:format>
        <dc:type
           rdf:resource="http://purl.org/dc/dcmitype/StillImage" />
        <dc:title></dc:title>
      </cc:Work>
    </rdf:RDF>
  </metadata>
  <defs
     id="defs5">
    <foreignObject
       requiredExtensions="http://ns.adobe.com/AdobeIllustrator/10.0/"
       x="0"
       y="0"
       width="1"
       height="1"
       id="foreignObject8">
      <i:pgfRef
         xlink:href="#adobe_illustrator_pgf" />
    </foreignObject>
  </defs>
  <text
     id="text7634"
     y="13.009918"
     x="8.8680515"
     style="font-weight:bold;font-size:11.25969982px;line-height:125%;font-family:sans-serif;-inkscape-font-specification:'sans-serif Bold';letter-spacing:0px;word-spacing:0px;fill:#227e13;stroke-width:1px"
     xml:space="preserve"><tspan
       y="13.009918"
       x="8.8680515"
       id="tspan7636">OFL</tspan></text>
  <path
     style="color:#000000;fill:#eeeeff;stroke-width:2.0006001;stroke-linecap:round"
     d="m 1.5793788,0 c 0,8.2988161 0.4940604,18.227705 9.2839572,18.096597 l 20.70832,-0.282386 c 8.778951,0 9.263631,-9.5153949 9.263631,-17.814211 z"
     id="path4419" />
  <path
     style="color:#000000;fill:#eeeeff;stroke:#ccccee;stroke-width:1.77646184;stroke-linecap:round"
     d="m 0.88831974,1.1574794 c 0,8.4725843 0.50031426,18.0283206 9.34962326,18.0283206 l 21.951288,0 c 8.849309,0 9.349623,-9.5557363 9.349623,-18.0283206"
     id="rect4216" />
  <g
     id="text14404"
     style="font-weight:bold;font-size:11.25969982px;line-height:125%;font-family:sans-serif;-inkscape-font-specification:'sans-serif Bold';letter-spacing:0px;word-spacing:0px;fill:#227e13;stroke-width:1px">
    <path
       id="path7639"
       style=""
       d="m 13.651225,6.1870239 q -0.967631,0 -1.500927,0.7147271 -0.533296,0.714727 -0.533296,2.0122315 0,1.2920065 0.533296,2.0067335 0.533296,0.714727 1.500927,0.714727 0.973128,0 1.506424,-0.714727 0.533297,-0.714727 0.533297,-2.0067335 0,-1.2975045 -0.533297,-2.0122315 -0.533296,-0.7147271 -1.506424,-0.7147271 z m 0,-1.5339141 q 1.979244,0 3.100816,1.1325674 1.121571,1.1325675 1.121571,3.1283053 0,1.9902395 -1.121571,3.1228075 -1.121572,1.132567 -3.100816,1.132567 -1.973746,0 -3.100816,-1.132567 -1.1215716,-1.132568 -1.1215716,-3.1228075 0,-1.9957378 1.1215716,-3.1283053 1.12707,-1.1325674 3.100816,-1.1325674 z" />
    <path
       id="path7641"
       style=""
       d="m 19.468003,4.8015531 5.712318,0 0,1.5998889 -3.595626,0 0,1.5284163 3.381208,0 0,1.599889 -3.381208,0 0,3.4801707 -2.116692,0 0,-8.2083649 z" />
    <path
       id="path7643"
       style=""
       d="m 27.165064,4.8015531 2.116691,0 0,6.6084759 3.716581,0 0,1.599889 -5.833272,0 0,-8.2083649 z" />
  </g>
</svg>
